Bank Churn Binary Classification
…
Tune Random Forest with Regular Grid

From the plot above, it seems low mtry (from 2 to 5) are good and high min_n (25 to 35) are good. We should a set range between this values using grid_regular for tuning one more time.

rf_grid <- 
  grid_regular(
    min_n(range = c(25, 35)),
    mtry(range = c(2, 6)),
    levels = 5
  )

rf_grid

# A tibble: 25 × 2
   min_n  mtry
   <int> <int>
 1    25     2
 2    27     2
 3    30     2
 4    32     2
 5    35     2
 6    25     3
 7    27     3
 8    30     3
 9    32     3
10    35     3
# ℹ 15 more rows
…
write_csv(exited_customers, "olamide_submission.csv")

read_csv("olamide_submission.csv")

Rows: 110023 Columns: 2
── Column specification ────────────────────────────────────────────────────────
Delimiter: ","
dbl (2): id, exited

ℹ Use `spec()` to retrieve the full column specification for this data.
ℹ Specify the column types or set `show_col_types = FALSE` to quiet this message.

# A tibble: 110,023 × 2
       id exited
    <dbl>  <dbl>
 1 165034      0
 2 165035      1
 3 165036      0
 4 165037      0
 5 165038      0
 6 165039      0
 7 165040      0
 8 165041      0
 9 165042      1
10 165043      0
# ℹ 110,013 more rows
